…
    iter = 1:10000
  ) %>% 
  mutate(
    result = map_lgl(group_size,birthday_sim)
  ) %>% 
  group_by(
    group_size
  ) %>% 
  summarize(
    prob_repeat = mean(result)
  )
birthday_sim_results
```

    ## # A tibble: 49 × 2
    ##    group_size prob_repeat
    ##         <int>       <dbl>
    ##  1          2      0.0026
    ##  2          3      0.0069
    ##  3          4      0.0166
    ##  4          5      0.0259
    ##  5          6      0.0411
    ##  6          7      0.0588
    ##  7          8      0.078 
    ##  8          9      0.098 
    ##  9         10      0.120 
    ## 10         11      0.137 
    ## # ℹ 39 more rows
…
  expand_grid(
    true_mu = 0:6,
    iter = 1:5000
  ) %>% 
  mutate(
    ttest_result = map(true_mu, ~sim_ttest(n = 30,mu = .x,sigma = 5))
  ) %>% 
  unnest(ttest_result) %>% 
  mutate(
    rejected = p_value < 0.05
  )
sim_results_df
```

    ## # A tibble: 35,000 × 5
    ##    true_mu  iter  mu_hat p_value rejected
    ##      <int> <int>   <dbl>   <dbl> <lgl>   
    ##  1       0     1  1.37     0.180 FALSE   
    ##  2       0     2 -0.514    0.602 FALSE   
    ##  3       0     3  0.0251   0.978 FALSE   
    ##  4       0     4  0.203    0.816 FALSE   
    ##  5       0     5 -0.744    0.417 FALSE   
    ##  6       0     6  0.681    0.384 FALSE   
    ##  7       0     7  1.60     0.156 FALSE   
    ##  8       0     8  0.580    0.582 FALSE   
    ##  9       0     9 -0.245    0.788 FALSE   
    ## 10       0    10  0.148    0.873 FALSE   
    ## # ℹ 34,990 more rows
…
``` r
summarize_cities = 
  homicides %>% 
  group_by(city_state) %>% 
  summarize(
    total = n(),
    unsolved = sum(disposition %in% c("Closed without arrest","Open/No arrest"))
  )
summarize_cities
```

    ## # A tibble: 51 × 3
    ##    city_state     total unsolved
    ##    <chr>          <int>    <int>
    ##  1 Albuquerque,NM   378      146
    ##  2 Atlanta,GA       973      373
    ##  3 Baltimore,MD    2827     1825
    ##  4 Baton Rouge,LA   424      196
    ##  5 Birmingham,AL    800      347
    ##  6 Boston,MA        614      310
    ##  7 Buffalo,NY       521      319
    ##  8 Charlotte,NC     687      206
    ##  9 Chicago,IL      5535     4073
    ## 10 Cincinnati,OH    694      309
    ## # ℹ 41 more rows
…
    ## Warning: There was 1 warning in `mutate()`.
    ## ℹ In argument: `cities_outcome = map2(unsolved, total,
    ##   ~broom::tidy(prop.test(.x, .y)))`.
    ## Caused by warning in `prop.test()`:
    ## ! Chi-squared approximation may be incorrect

``` r
prop_all_cities
```

    ## # A tibble: 51 × 11
    ##    city_state     total unsolved estimate statistic   p.value parameter conf.low
    ##    <chr>          <int>    <int>    <dbl>     <dbl>     <dbl>     <int>    <dbl>
    ##  1 Albuquerque,NM   378      146    0.386   19.1    1.23e-  5         1    0.337
    ##  2 Atlanta,GA       973      373    0.383   52.5    4.32e- 13         1    0.353
    ##  3 Baltimore,MD    2827     1825    0.646  239.     6.46e- 54         1    0.628
    ##  4 Baton Rouge,LA   424      196    0.462    2.27   1.32e-  1         1    0.414
    ##  5 Birmingham,AL    800      347    0.434   13.8    2.05e-  4         1    0.399
    ##  6 Boston,MA        614      310    0.505    0.0407 8.40e-  1         1    0.465
    ##  7 Buffalo,NY       521      319    0.612   25.8    3.73e-  7         1    0.569
    ##  8 Charlotte,NC     687      206    0.300  109.     1.41e- 25         1    0.266
    ##  9 Chicago,IL      5535     4073    0.736 1231.     1.28e-269         1    0.724
    ## 10 Cincinnati,OH    694      309    0.445    8.11   4.41e-  3         1    0.408
    ## # ℹ 41 more rows
    ## # ℹ 3 more variables: conf.high <dbl>, method <chr>, alternative <chr>
…
